[gd_scene load_steps=10 format=2]

[ext_resource path="res://Assets/Tiles/GoldChar/Frame001.png" type="Texture" id=1]
[ext_resource path="res://Assets/Tiles/GoldChar/Frame002.png" type="Texture" id=2]
[ext_resource path="res://Assets/Tiles/GoldChar/Frame003.png" type="Texture" id=3]
[ext_resource path="res://Assets/Tiles/GoldChar/Frame004.png" type="Texture" id=4]
[ext_resource path="res://Assets/Tiles/GoldChar/Frame005.png" type="Texture" id=5]
[ext_resource path="res://Assets/Tiles/GoldChar/Frame006.png" type="Texture" id=6]
[ext_resource path="res://Assets/Tiles/GoldChar/Frame007.png" type="Texture" id=7]
[ext_resource path="res://Assets/Tiles/GoldChar/Frame008.png" type="Texture" id=8]

[sub_resource type="SpriteFrames" id=1]
animations = [ {
"frames": [ ExtResource( 1 ), ExtResource( 2 ), ExtResource( 3 ), ExtResource( 4 ), ExtResource( 5 ), ExtResource( 6 ), ExtResource( 7 ), ExtResource( 8 ) ],
"loop": true,
"name": "default",
"speed": 13.0
} ]

[node name="AnimatedSprite" type="AnimatedSprite"]
frames = SubResource( 1 )
frame = 5
playing = true

